{
  "suites" : [ 
    { 
      "suiteName" : "mysql",
      "dbserver" : "localhost",
      "dbport" : "3306",
      "dbname" : "mydb",
      "username" : "root",
      "tests" : [
		{
          "packageName" : "insert",
		  "testName" : "MysqlInsertIndividualy",
		  "count" : "20000"
		},
		{
          "packageName" : "insert",
		  "testName" : "MysqlInsertIndividualyWithIndex",
		  "count" : "20000"
		},
		{
          "packageName" : "insert",
		  "testName" : "MysqlInsertIndividualyAddresses",
		  "count" : "20000"
		},
		{
          "packageName" : "insert",
		  "testName" : "MysqlInsertBatch",
		  "count" : "20000"
		},
		{
          "packageName" : "insert",
		  "testName" : "MysqlInsertBatchWithIndex",
		  "count" : "20000"
		},
		{
          "packageName" : "insert",
		  "testName" : "MysqlInsertBatchAddresses",
		  "count" : "20000"
		},
		{
          "packageName" : "select",
		  "testName" : "MysqlSelectFullByQuery",
		  "count" : "20000"
		},
		{
          "packageName" : "select",
		  "testName" : "MysqlSelectFullByQueryWithIndex",
		  "count" : "20000"
		},
		{
          "packageName" : "select",
		  "testName" : "MysqlSelectValuesByQuery",
		  "count" : "20000"
		},
		{
          "packageName" : "select",
		  "testName" : "MysqlSelectValuesByQueryWithIndex",
		  "count" : "20000"
		}
	  ]
    },
    { 
      "suiteName" : "derby",
      "dbserver" : "localhost",
      "dbport" : "1527",
      "dbname" : "mydb",
      "tests" : [
		{
          "packageName" : "insert",
		  "testName" : "DerbyInsertIndividualy",
		  "count" : "20000"
		},
		{
          "packageName" : "insert",
		  "testName" : "DerbyInsertIndividualyWithIndex",
		  "count" : "20000"
		},
		{
          "packageName" : "insert",
		  "testName" : "DerbyInsertIndividualyAddresses",
		  "count" : "20000"
		},
		{
          "packageName" : "insert",
		  "testName" : "DerbyInsertBatch",
		  "count" : "20000"
		},
		{
          "packageName" : "insert",
		  "testName" : "DerbyInsertBatchWithIndex",
		  "count" : "20000"
		},
		{
          "packageName" : "insert",
		  "testName" : "DerbyInsertBatchAddresses",
		  "count" : "20000"
		},
		{
          "packageName" : "select",
		  "testName" : "DerbySelectFullByQuery",
		  "count" : "20000"
		},
		{
          "packageName" : "select",
		  "testName" : "DerbySelectFullByQueryWithIndex",
		  "count" : "20000"
		},
		{
          "packageName" : "select",
		  "testName" : "DerbySelectValuesByQuery",
		  "count" : "20000"
		},
		{
          "packageName" : "select",
		  "testName" : "DerbySelectValuesByQueryWithIndex",
		  "count" : "20000"
		}
	  ]
    },
    { 
      "suiteName" : "mongo",
      "dbserver" : "localhost",
      "dbport" : "27017",
      "dbname" : "mydb",
      "tests" : [
		{
          "packageName" : "insert",
		  "testName" : "MongoInsertIndividualy",
		  "count" : "20000"
		},
		{
          "packageName" : "insert",
		  "testName" : "MongoInsertIndividualyWithIndex",
		  "count" : "20000"
		},
		{
          "packageName" : "insert",
		  "testName" : "MongoInsertIndividualyAddresses",
		  "count" : "20000"
		},
		{
          "packageName" : "insert",
		  "testName" : "MongoInsertBatch",
		  "count" : "20000"
		},
		{
          "packageName" : "insert",
		  "testName" : "MongoInsertBatchWithIndex",
		  "count" : "20000"
		},
		{
          "packageName" : "insert",
		  "testName" : "MongoInsertBatchAddresses",
		  "count" : "20000"
		},
		{
          "packageName" : "select",
		  "testName" : "MongoSelectFullByQuery",
		  "count" : "20000"
		},
		{
          "packageName" : "select",
		  "testName" : "MongoSelectFullByQueryWithIndex",
		  "count" : "20000"
		},
		{
          "packageName" : "select",
		  "testName" : "MongoSelectValuesByQuery",
		  "count" : "20000"
		},
		{
          "packageName" : "select",
		  "testName" : "MongoSelectValuesByQueryWithIndex",
		  "count" : "20000"
		}
	  ]
    }
  ] 
} 